# File produced by Open Asset Import Library (http://www.assimp.sf.net)
# (assimp v3.1.187496374)

newmtl CRSG70
Kd 0.0862745 0.160784 0.27451
Ka 0 0 0
Ks 1 1 1
Ke 0 0 0
d 1
Ns 70
illum 2
map_Kd CRSG70.JPG
bump CRSG70.JPG
map_bump CRSG70.JPG

newmtl CRSGALLM
Kd 0.745098 0.784314 0.831373
Ka 0 0 0
Ks 1 1 1
Ke 0 0 0
d 1
Ns 45
illum 2
map_Kd CRSGALLM.JPG

